# Blender v2.81 (sub 16) OBJ File: ''
# www.blender.org
mtllib sunflower_seed.mtl
o Roundcube
v 0.577350 -1.417373 -0.281523
v 0.288675 -1.521750 -0.330122
v 0.000000 -1.552539 -0.344803
v -0.288675 -1.521750 -0.330122
v 0.677003 -1.028021 -0.330122
v 0.338502 -1.047472 -0.428131
v 0.000000 -1.050561 -0.456145
v -0.338502 -1.047472 -0.428131
v 0.707107 -0.526919 -0.344803
v 0.353553 -0.398476 -0.456145
v 0.000000 -0.350018 -0.487643
v -0.353553 -0.398476 -0.456145
v 0.677003 0.070506 -0.330122
v 0.338502 0.354522 -0.428131
v 0.000000 0.455889 -0.456145
v -0.338502 0.354522 -0.428131
v -0.577350 -1.417373 -0.281523
v -0.677003 -1.522988 -0.140741
v -0.677003 -1.522988 0.140823
v -0.677003 -1.028021 -0.330122
v -0.877971 -1.144592 -0.165041
v -0.877971 -1.144592 0.165123
v -0.707107 -0.526919 -0.344803
v -0.935414 -0.631516 -0.172381
v -0.935414 -0.631516 0.172463
v -0.677003 0.070506 -0.330122
v -0.877971 0.033499 -0.165041
v -0.877971 0.033499 0.165123
v -0.577350 -1.417373 0.281605
v -0.288675 -1.521750 0.330204
v 0.000000 -1.552539 0.344885
v 0.288675 -1.521750 0.330204
v -0.677003 -1.028021 0.330204
v -0.338502 -1.047472 0.428213
v 0.000000 -1.050561 0.456227
v 0.338502 -1.047472 0.428213
v -0.707107 -0.526919 0.344885
v -0.353553 -0.398476 0.456227
v 0.000000 -0.350018 0.487724
v 0.353553 -0.398476 0.456227
v -0.677003 0.070506 0.330204
v -0.338502 0.354522 0.428213
v 0.000000 0.455889 0.456227
v 0.338502 0.354522 0.428213
v 0.577350 -1.417373 0.281605
v 0.677003 -1.522988 0.140823
v 0.677003 -1.522988 -0.140741
v 0.677003 -1.028021 0.330204
v 0.877971 -1.144592 0.165123
v 0.877971 -1.144592 -0.165041
v 0.707107 -0.526919 0.344885
v 0.935414 -0.631516 0.172463
v 0.935414 -0.631516 -0.172381
v 0.677003 0.070506 0.330204
v 0.877971 0.033499 0.165123
v 0.877971 0.033499 -0.165041
v 0.338502 -1.723956 0.165123
v 0.000000 -1.781399 0.172463
v -0.338502 -1.723956 0.165123
v 0.338502 -1.723956 -0.165041
v 0.000000 -1.781399 -0.172381
v -0.338502 -1.723956 -0.165041
v 0.577350 0.751337 -0.281523
v 0.288675 1.141578 -0.330122
v 0.000000 1.274675 -0.344803
v -0.288675 1.141578 -0.330122
v -0.577350 0.751337 -0.281523
v 0.677003 0.878408 -0.140741
v 0.354569 1.407022 -0.165041
v 0.000000 1.768874 -0.172381
v -0.354569 1.407022 -0.165041
v -0.677003 0.878408 -0.140741
v 0.677003 0.878408 0.140823
v 0.354569 1.407022 0.165123
v 0.000000 1.768874 0.172463
v -0.354569 1.407022 0.165123
v -0.677003 0.878408 0.140823
v 0.577350 0.751337 0.281605
v 0.288675 1.141578 0.330204
v 0.000000 1.274675 0.344885
v -0.288675 1.141578 0.330204
v -0.577350 0.751337 0.281605
v 0.352392 -1.777663 0.036927
v 0.705717 -1.555678 0.031539
v -0.000000 1.881925 0.038503
v -0.928340 -1.172834 0.036924
v 0.705699 0.913648 0.031538
v -0.705717 -1.555678 0.031539
v 0.991300 -0.656662 0.038548
v 0.928407 0.024707 0.036927
v -0.991300 -0.656662 0.038548
v -0.000000 -1.840430 0.038551
v -0.705699 0.913648 0.031538
v 0.368824 1.430972 0.036898
v -0.928407 0.024707 0.036927
v -0.368824 1.430972 0.036898
v 0.928340 -1.172834 0.036924
v -0.352392 -1.777663 0.036927
v -0.992862 -0.657311 -0.035912
v -0.000000 1.885382 -0.035873
v 0.929790 0.024692 -0.034398
v -0.929790 0.024692 -0.034398
v 0.369289 1.433769 -0.034372
v 0.352816 -1.779346 -0.034398
v -0.369289 1.433769 -0.034372
v -0.352816 -1.779346 -0.034398
v 0.706473 0.914713 -0.029363
v 0.929729 -1.173764 -0.034395
v -0.929729 -1.173764 -0.034395
v 0.706489 -1.556691 -0.029364
v 0.992862 -0.657311 -0.035912
v -0.000000 -1.842301 -0.035915
v -0.706489 -1.556691 -0.029364
v -0.706473 0.914713 -0.029363
v -0.727701 -1.591985 -0.035150
v -0.727636 -1.591863 0.035191
v -0.961441 -1.200453 -0.033878
v -0.961366 -1.200378 0.033915
v -1.027699 -0.670015 0.033604
v -1.027775 -0.670039 -0.033565
v -0.961498 0.032742 -0.033785
v -0.961423 0.032705 0.033823
v 0.727636 -1.591863 0.035191
v 0.727701 -1.591985 -0.035150
v 0.961441 -1.200453 -0.033878
v 0.961366 -1.200378 0.033915
v 1.027699 -0.670015 0.033604
v 1.027775 -0.670039 -0.033565
v 0.961498 0.032742 -0.033785
v 0.961423 0.032705 0.033823
v 0.364098 -1.825509 -0.034328
v 0.364068 -1.825382 0.034366
v 0.000000 -1.891655 0.034151
v 0.000000 -1.891782 -0.034113
v -0.364098 -1.825509 -0.034328
v -0.364068 -1.825382 0.034366
v 0.727771 0.950319 0.034306
v 0.727835 0.950436 -0.034268
v 0.381353 1.500189 -0.032899
v 0.381323 1.500037 0.032926
v 0.000000 1.963996 0.031746
v 0.000000 1.964144 -0.031709
v -0.381353 1.500189 -0.032899
v -0.381323 1.500037 0.032926
v -0.727771 0.950319 0.034306
v -0.727835 0.950436 -0.034268
vt 0.579116 0.606222
vt 0.581067 0.553313
vt 0.631552 0.593964
vt 0.613724 0.648895
vt 0.588217 0.501204
vt 0.650055 0.537021
vt 0.588214 0.477358
vt 0.581075 0.425255
vt 0.631559 0.384633
vt 0.650046 0.441573
vt 0.579135 0.372354
vt 0.613746 0.329704
vt 0.697539 0.653825
vt 0.661118 0.696484
vt 0.726359 0.604303
vt 0.697544 0.324814
vt 0.726348 0.374338
vt 0.661140 0.282147
vt 0.771622 0.729873
vt 0.719892 0.751068
vt 0.806914 0.692943
vt 0.771626 0.248815
vt 0.806903 0.285752
vt 0.719912 0.227601
vt 0.845549 0.814133
vt 0.789253 0.810672
vt 0.881577 0.793973
vt 0.845553 0.164608
vt 0.881568 0.184780
vt 0.789269 0.168043
vt 0.558088 0.359715
vt 0.587035 0.303734
vt 0.527236 0.423588
vt 0.540607 0.350813
vt 0.545362 0.352024
vt 0.533010 0.423606
vt 0.496110 0.345578
vt 0.482827 0.355628
vt 0.446472 0.299815
vt 0.458966 0.280741
vt 0.460984 0.372368
vt 0.420282 0.333844
vt 0.632991 0.250571
vt 0.620935 0.231788
vt 0.617483 0.227983
vt 0.688972 0.167290
vt 0.690358 0.172453
vt 0.390588 0.254418
vt 0.400922 0.231285
vt 0.364712 0.295671
vt 0.699520 0.193292
vt 0.404297 0.225997
vt 0.318571 0.189369
vt 0.319365 0.183200
vt 0.312049 0.213836
vt 0.295663 0.256323
vt 0.791422 0.131040
vt 0.540577 0.627747
vt 0.545333 0.626539
vt 0.574008 0.689821
vt 0.569611 0.692339
vt 0.206130 0.179553
vt 0.204248 0.157311
vt 0.214404 0.217610
vt 0.462293 0.427853
vt 0.407131 0.394993
vt 0.457924 0.481202
vt 0.393851 0.456234
vt 0.457920 0.497296
vt 0.462275 0.550650
vt 0.407102 0.583479
vt 0.393838 0.522227
vt 0.460952 0.606137
vt 0.420237 0.644639
vt 0.332249 0.350072
vt 0.309276 0.408657
vt 0.332205 0.628358
vt 0.309246 0.569757
vt 0.364654 0.682781
vt 0.245329 0.294898
vt 0.214913 0.344371
vt 0.245265 0.683484
vt 0.214861 0.633990
vt 0.295591 0.722090
vt 0.155936 0.234935
vt 0.123144 0.268789
vt 0.155852 0.743397
vt 0.123068 0.709521
vt 0.214318 0.760757
vt 0.482791 0.622891
vt 0.446419 0.678684
vt 0.496071 0.632949
vt 0.512173 0.556600
vt 0.518316 0.556845
vt 0.501232 0.634872
vt 0.558062 0.618852
vt 0.587003 0.674858
vt 0.390520 0.724051
vt 0.617441 0.750639
vt 0.620895 0.746835
vt 0.690320 0.806215
vt 0.688932 0.811379
vt 0.632957 0.728054
vt 0.311967 0.764588
vt 0.318483 0.789060
vt 0.319275 0.795230
vt 0.201180 0.827783
vt 0.204146 0.821053
vt 0.699489 0.785376
vt 0.206034 0.798811
vt 0.789880 0.868741
vt 0.791491 0.875647
vt 0.791398 0.847684
vt 0.494786 0.553567
vt 0.494352 0.489260
vt 0.494803 0.424956
vt 0.527220 0.554954
vt 0.532995 0.554939
vt 0.526824 0.489268
vt 0.533096 0.489269
vt 0.463709 0.276860
vt 0.549803 0.553038
vt 0.551526 0.489273
vt 0.549815 0.425515
vt 0.862480 0.863743
vt 0.923318 0.868155
vt 0.862490 0.115018
vt 0.923315 0.110634
vt 0.861926 0.887156
vt 0.932377 0.897501
vt 0.939306 0.907841
vt 0.866741 0.897122
vt 0.119427 0.818722
vt 0.045812 0.798326
vt 0.054784 0.790888
vt 0.126356 0.810514
vt 0.045916 0.179944
vt 0.119533 0.159592
vt 0.126459 0.167804
vt 0.054885 0.187386
vt 0.201284 0.150579
vt 0.129881 0.787054
vt 0.068693 0.766337
vt 0.129978 0.191264
vt 0.068788 0.211945
vt 0.861941 0.091610
vt 0.789908 0.109988
vt 0.791521 0.103084
vt 0.866756 0.081648
vt 0.932376 0.081299
vt 0.939306 0.070966
vt 0.512190 0.421933
vt 0.512134 0.489265
vt 0.400849 0.747191
vt 0.458908 0.697767
vt 0.574046 0.288767
vt 0.569650 0.286248
vt 0.501270 0.343659
vt 0.518333 0.421691
vt 0.518369 0.489266
vt 0.404223 0.752481
vt 0.463651 0.701651
vt 0.685440 0.156645
vt 0.789111 0.091340
vt 0.563624 0.700585
vt 0.532697 0.633303
vt 0.685398 0.822024
vt 0.612916 0.760490
vt 0.865575 0.069691
vt 0.938538 0.059279
vt 0.865557 0.909082
vt 0.789079 0.887393
vt 0.563666 0.278000
vt 0.612961 0.218132
vt 0.532730 0.345254
vt 0.938535 0.919530
vn 0.4042 -0.3583 -0.8415
vn 0.1989 -0.4197 -0.8856
vn 0.1787 -0.1288 -0.9754
vn 0.4435 -0.1408 -0.8851
vn 0.0000 -0.4302 -0.9027
vn 0.0000 -0.1296 -0.9915
vn -0.1989 -0.4197 -0.8856
vn -0.1787 -0.1288 -0.9754
vn -0.4042 -0.3583 -0.8415
vn -0.4435 -0.1408 -0.8851
vn 0.1961 -0.0002 -0.9806
vn 0.4668 -0.0021 -0.8844
vn 0.0000 0.0006 -1.0000
vn -0.1961 -0.0002 -0.9806
vn -0.4668 -0.0021 -0.8844
vn 0.2255 0.0907 -0.9700
vn 0.5030 0.0933 -0.8592
vn 0.0000 0.0944 -0.9955
vn -0.2255 0.0907 -0.9700
vn -0.5030 0.0933 -0.8592
vn 0.3532 0.2598 -0.8987
vn 0.5305 0.1924 -0.8256
vn 0.0000 0.2898 -0.9571
vn -0.3532 0.2598 -0.8987
vn -0.5305 0.1924 -0.8256
vn -0.5951 -0.5640 -0.5725
vn -0.7601 -0.2480 -0.6006
vn -0.2692 -0.6910 -0.6708
vn -0.5285 -0.5081 -0.6801
vn -0.3237 -0.3170 -0.8914
vn -0.1716 -0.4560 -0.8733
vn -0.3462 -0.3363 0.8758
vn -0.5959 -0.5648 0.5709
vn -0.7611 -0.2482 0.5992
vn -0.5001 -0.1648 0.8501
vn -0.4042 -0.3583 0.8415
vn -0.4435 -0.1408 0.8851
vn -0.7986 -0.0113 -0.6018
vn -0.5467 -0.0127 -0.8372
vn -0.7435 -0.0121 -0.6686
vn -0.7094 0.1211 -0.6943
vn -0.5389 0.0870 -0.8379
vn -0.7995 -0.0113 0.6005
vn -0.5788 -0.0119 0.8154
vn -0.4668 -0.0021 0.8844
vn -0.8142 0.1378 -0.5640
vn -0.7637 -0.0132 0.6454
vn -0.5710 0.0925 0.8157
vn -0.7319 0.1253 0.6698
vn -0.8150 0.1379 0.5628
vn -0.5030 0.0933 0.8592
vn -0.7848 0.3272 -0.5263
vn 0.5285 -0.5081 -0.6801
vn 0.3237 -0.3170 -0.8914
vn 0.4689 -0.1565 -0.8692
vn 0.7021 -0.2355 -0.6720
vn -0.7859 0.3280 0.5242
vn -0.5007 0.2243 0.8360
vn -0.5305 0.1924 0.8256
vn -0.1989 -0.4197 0.8856
vn -0.1787 -0.1288 0.9754
vn 0.0000 -0.4302 0.9027
vn 0.0000 -0.1296 0.9915
vn 0.1989 -0.4197 0.8856
vn 0.1787 -0.1288 0.9754
vn 0.4042 -0.3583 0.8415
vn 0.4435 -0.1408 0.8851
vn -0.1961 -0.0002 0.9806
vn 0.0000 0.0006 1.0000
vn 0.1961 -0.0002 0.9806
vn 0.4668 -0.0021 0.8844
vn -0.2255 0.0907 0.9700
vn 0.0000 0.0944 0.9955
vn 0.2255 0.0907 0.9700
vn 0.5030 0.0933 0.8592
vn -0.3532 0.2598 0.8987
vn 0.0000 0.2898 0.9571
vn 0.3532 0.2598 0.8987
vn 0.5305 0.1924 0.8256
vn 0.5959 -0.5648 0.5709
vn 0.7611 -0.2482 0.5992
vn 0.3462 -0.3363 0.8758
vn 0.1823 -0.4808 0.8577
vn 0.2740 -0.7038 0.6554
vn 0.5386 -0.5194 0.6634
vn 0.5951 -0.5640 -0.5725
vn 0.7601 -0.2480 -0.6006
vn 0.7995 -0.0113 0.6005
vn 0.7435 -0.0121 -0.6686
vn 0.5467 -0.0127 -0.8372
vn 0.5389 0.0870 -0.8379
vn 0.7094 0.1211 -0.6943
vn 0.7986 -0.0113 -0.6018
vn 0.8150 0.1379 0.5628
vn 0.5710 0.0925 0.8157
vn 0.7319 0.1253 0.6698
vn 0.6819 0.2930 0.6701
vn 0.5007 0.2243 0.8360
vn 0.8142 0.1378 -0.5640
vn 0.7859 0.3280 0.5242
vn 0.4689 0.2145 -0.8568
vn 0.6664 0.2843 -0.6892
vn 0.7848 0.3272 -0.5263
vn 0.2951 -0.7525 0.5887
vn 0.0000 -0.7947 0.6070
vn -0.2951 -0.7525 0.5887
vn 0.2692 -0.6910 -0.6708
vn 0.1716 -0.4560 -0.8733
vn 0.0000 -0.7497 -0.6618
vn 0.0000 -0.5086 -0.8610
vn -0.7175 -0.2427 0.6529
vn 0.2948 -0.7512 -0.5904
vn 0.0000 -0.7933 -0.6088
vn -0.2948 -0.7512 -0.5904
vn 0.6231 0.4899 -0.6096
vn 0.0000 0.7239 -0.6899
vn -0.6231 0.4899 -0.6096
vn 0.4487 0.3367 -0.8278
vn 0.0000 0.2495 -0.9684
vn 0.0000 0.8303 -0.5573
vn 0.5929 0.4298 -0.6810
vn 0.6041 0.4387 0.6652
vn 0.0000 0.8340 0.5518
vn 0.0000 0.2750 0.9614
vn 0.4704 0.3507 0.8097
vn -0.6041 0.4387 0.6652
vn -0.4704 0.3507 0.8097
vn -0.6819 0.2930 0.6701
vn 0.6244 0.4917 0.6068
vn 0.0000 0.7283 0.6853
vn -0.6244 0.4917 0.6068
vn -0.4487 0.3367 -0.8278
vn -0.4689 0.2145 -0.8568
vn -0.6664 0.2843 -0.6892
vn -0.5929 0.4298 -0.6810
vn -0.1823 -0.4808 0.8577
vn 0.0000 -0.5342 0.8453
vn 0.5788 -0.0119 0.8154
vn 0.5001 -0.1648 0.8501
vn -0.4689 -0.1565 -0.8692
vn -0.7021 -0.2355 -0.6720
vn -0.5386 -0.5194 0.6634
vn -0.2740 -0.7038 0.6554
vn 0.0000 -0.7630 0.6464
vn 0.7637 -0.0132 0.6454
vn 0.7175 -0.2427 0.6529
usemtl None
s 1
f 1/1/1 2/2/2 6/3/3 5/4/4
f 2/2/2 3/5/5 7/6/6 6/3/3
f 3/7/5 4/8/7 8/9/8 7/10/6
f 4/8/7 17/11/9 20/12/10 8/9/8
f 5/4/4 6/3/3 10/13/11 9/14/12
f 6/3/3 7/6/6 11/15/13 10/13/11
f 7/10/6 8/9/8 12/16/14 11/17/13
f 8/9/8 20/12/10 23/18/15 12/16/14
f 9/14/12 10/13/11 14/19/16 13/20/17
f 10/13/11 11/15/13 15/21/18 14/19/16
f 11/17/13 12/16/14 16/22/19 15/23/18
f 12/16/14 23/18/15 26/24/20 16/22/19
f 13/20/17 14/19/16 64/25/21 63/26/22
f 14/19/16 15/21/18 65/27/23 64/25/21
f 15/23/18 16/22/19 66/28/24 65/29/23
f 16/22/19 26/24/20 67/30/25 66/28/24
f 17/11/9 18/31/26 21/32/27 20/12/10
f 135/33/28 115/34/29 113/35/30 106/36/31
f 88/37/32 19/38/33 22/39/34 86/40/35
f 19/38/33 29/41/36 33/42/37 22/39/34
f 20/12/10 21/32/27 24/43/38 23/18/15
f 99/44/39 120/45/40 121/46/41 102/47/42
f 86/40/35 22/39/34 25/48/43 91/49/44
f 22/39/34 33/42/37 37/50/45 25/48/43
f 23/18/15 24/43/38 27/51/46 26/24/20
f 119/52/47 91/49/44 95/53/48 122/54/49
f 91/49/44 25/48/43 28/55/50 95/53/48
f 25/48/43 37/50/45 41/56/51 28/55/50
f 26/24/20 27/51/46 72/57/52 67/30/25
f 124/58/53 110/59/54 108/60/55 125/61/56
f 95/53/48 28/55/50 77/62/57 93/63/58
f 28/55/50 41/56/51 82/64/59 77/62/57
f 29/41/36 30/65/60 34/66/61 33/42/37
f 30/65/60 31/67/62 35/68/63 34/66/61
f 31/69/62 32/70/64 36/71/65 35/72/63
f 32/70/64 45/73/66 48/74/67 36/71/65
f 33/42/37 34/66/61 38/75/68 37/50/45
f 34/66/61 35/68/63 39/76/69 38/75/68
f 35/72/63 36/71/65 40/77/70 39/78/69
f 36/71/65 48/74/67 51/79/71 40/77/70
f 37/50/45 38/75/68 42/80/72 41/56/51
f 38/75/68 39/76/69 43/81/73 42/80/72
f 39/78/69 40/77/70 44/82/74 43/83/73
f 40/77/70 51/79/71 54/84/75 44/82/74
f 41/56/51 42/80/72 81/85/76 82/64/59
f 42/80/72 43/81/73 80/86/77 81/85/76
f 43/83/73 44/82/74 79/87/78 80/88/77
f 44/82/74 54/84/75 78/89/79 79/87/78
f 45/73/66 46/90/80 49/91/81 48/74/67
f 84/92/82 83/93/83 132/94/84 123/95/85
f 110/59/54 47/96/86 50/97/87 108/60/55
f 47/96/86 1/1/1 5/4/4 50/97/87
f 48/74/67 49/91/81 52/98/88 51/79/71
f 128/99/89 111/100/90 101/101/91 129/102/92
f 108/60/55 50/97/87 53/103/93 111/100/90
f 50/97/87 5/4/4 9/14/12 53/103/93
f 51/79/71 52/98/88 55/104/94 54/84/75
f 90/105/95 130/106/96 137/107/97 87/108/98
f 111/100/90 53/103/93 56/109/99 101/101/91
f 53/103/93 9/14/12 13/20/17 56/109/99
f 54/84/75 55/104/94 73/110/100 78/89/79
f 129/102/92 101/101/91 107/111/101 138/112/102
f 101/101/91 56/109/99 68/113/103 107/111/101
f 56/109/99 13/20/17 63/26/22 68/113/103
f 45/73/66 32/70/64 57/114/104 46/90/80
f 32/70/64 31/69/62 58/115/105 57/114/104
f 31/67/62 30/65/60 59/116/106 58/115/105
f 30/65/60 29/41/36 19/38/33 59/116/106
f 124/58/53 131/117/107 104/118/108 110/59/54
f 131/117/107 134/119/109 112/120/110 104/118/108
f 134/119/109 135/33/28 106/36/31 112/120/110
f 118/121/111 86/40/35 91/49/44 119/52/47
f 110/59/54 104/118/108 60/122/112 47/96/86
f 104/118/108 112/120/110 61/123/113 60/122/112
f 112/120/110 106/36/31 62/124/114 61/123/113
f 106/36/31 113/35/30 18/31/26 62/124/114
f 47/96/86 60/122/112 2/2/2 1/1/1
f 60/122/112 61/123/113 3/5/5 2/2/2
f 61/123/113 62/124/114 4/8/7 3/7/5
f 62/124/114 18/31/26 17/11/9 4/8/7
f 63/26/22 64/25/21 69/125/115 68/113/103
f 64/25/21 65/27/23 70/126/116 69/125/115
f 65/29/23 66/28/24 71/127/117 70/128/116
f 66/28/24 67/30/25 72/57/52 71/127/117
f 103/129/118 100/130/119 142/131/120 139/132/121
f 140/133/122 141/134/123 85/135/124 94/136/125
f 141/137/123 144/138/126 96/139/127 85/140/124
f 144/138/126 145/141/128 93/63/58 96/139/127
f 87/108/98 94/136/125 74/142/129 73/110/100
f 94/136/125 85/135/124 75/143/130 74/142/129
f 85/140/124 96/139/127 76/144/131 75/145/130
f 96/139/127 93/63/58 77/62/57 76/144/131
f 73/110/100 74/142/129 79/87/78 78/89/79
f 74/142/129 75/143/130 80/88/77 79/87/78
f 75/145/130 76/144/131 81/85/76 80/86/77
f 76/144/131 77/62/57 82/64/59 81/85/76
f 105/146/132 114/147/133 146/148/134 143/149/135
f 100/150/119 105/146/132 143/149/135 142/151/120
f 107/111/101 103/129/118 139/132/121 138/112/102
f 59/116/106 19/38/33 88/37/32 98/152/136
f 58/115/105 59/116/106 98/152/136 92/153/137
f 57/114/104 58/115/105 92/153/137 83/93/83
f 46/90/80 57/114/104 83/93/83 84/92/82
f 55/104/94 90/105/95 87/108/98 73/110/100
f 52/98/88 89/154/138 90/105/95 55/104/94
f 49/91/81 97/155/139 89/154/138 52/98/88
f 46/90/80 84/92/82 97/155/139 49/91/81
f 102/47/42 121/46/41 146/148/134 114/147/133
f 122/54/49 95/53/48 93/63/58 145/141/128
f 109/156/140 117/157/141 120/45/40 99/44/39
f 113/35/30 115/34/29 117/157/141 109/156/140
f 71/127/117 72/57/52 114/147/133 105/146/132
f 70/128/116 71/127/117 105/146/132 100/150/119
f 69/125/115 70/126/116 100/130/119 103/129/118
f 68/113/103 69/125/115 103/129/118 107/111/101
f 98/152/136 88/37/32 116/158/142 136/159/143
f 137/107/97 140/133/122 94/136/125 87/108/98
f 92/153/137 98/152/136 136/159/143 133/160/144
f 125/61/56 108/60/55 111/100/90 128/99/89
f 83/93/83 92/153/137 133/160/144 132/94/84
f 89/154/138 127/161/145 130/106/96 90/105/95
f 97/155/139 126/162/146 127/161/145 89/154/138
f 84/92/82 123/95/85 126/162/146 97/155/139
f 27/51/46 102/47/42 114/147/133 72/57/52
f 24/43/38 99/44/39 102/47/42 27/51/46
f 21/32/27 109/156/140 99/44/39 24/43/38
f 18/31/26 113/35/30 109/156/140 21/32/27
f 122/163/49 145/164/128 146/148/134 121/46/41
f 124/58/53 125/61/56 126/165/146 123/166/85
f 128/99/89 129/102/92 130/167/96 127/168/145
f 142/151/120 143/149/135 144/169/126 141/170/123
f 138/112/102 139/132/121 140/171/122 137/172/97
f 132/94/84 133/160/144 134/119/109 131/117/107
f 118/173/111 119/174/47 120/45/40 117/157/141
f 116/175/142 118/173/111 117/157/141 115/34/29
f 129/102/92 138/112/102 137/172/97 130/167/96
f 125/61/56 128/99/89 127/168/145 126/165/146
f 115/34/29 135/33/28 136/159/143 116/175/142
f 143/149/135 146/148/134 145/164/128 144/169/126
f 123/166/85 132/94/84 131/117/107 124/58/53
f 139/132/121 142/131/120 141/176/123 140/171/122
f 119/174/47 122/163/49 121/46/41 120/45/40
f 133/160/144 136/159/143 135/33/28 134/119/109
f 116/158/142 88/37/32 86/40/35 118/121/111
